{
    "libc++.tbd": 1,
    "libz.tbd": 2,
    "AddressBook.framework": 1,
    "libsqlite3.0.tbd": 1,
    "Security.framework": 1,
    "SystemConfiguration.framework": 1,
    "CoreTelephony.framework": 1
}